﻿nom,preu,marca
"Nespresso DeLonghi Pixie EN125S - Cafetera de cápsulas, color plata","EUR 125,80","de Nespresso"
"Krups KP1201 - Cafetera Nestlé Dolce Gusto Mini Me, automática, 15 bares de presión, color gris","EUR 69,00","de Krups"
"DeLonghi Dolce Gusto Mini Me EDG 305 BG - Cafetera automática, color negro","EUR 69,00","de DeLonghi"
"Nespresso Krups Inissia XN1001 - Cafetera de cápsulas, color blanco","EUR 82,48","de Nespresso"
"DeLonghi Nespresso Inissia EN 80.B - Cafetera automática, 19 bares, color negro","EUR 72,00","de Nespresso"
"DeLonghi Dolce Gusto Jovia EDG250.R - Cafetera, 15 bar, color rojo","EUR 52,00","de DeLonghi"
"De'Longhi Dolce Gusto Piccolo EDG 200.R - Cafetera de cápsulas, 15 bar, color rojo xxx","EUR 49,15","de DeLonghi"
"Nespresso DeLonghi Essenza EN97W - Cafetera de cápsulas, color blanco","EUR 12,90","de Nespresso"
"DeLonghi Nespresso Citiz  - Cafetera monodosis (19 bares, Flow-stop, rejilla adaptable para vaso macchiato, modo ahorro energía), color negro","EUR 141,80","de Nespresso"
"Krups Nespresso Citiz Flow XN7405 - Cafetera monodosis de 19 bares, 2 programas de café personalizables, bandeja extraíble y autoapagado, color rojo","EUR 123,82","de Nespresso"
"Krups KP1006 - Cafetera Nestlé Dolce Gusto Piccolo, 15 bares de presión, color rojo","EUR 59,00","de Krups"
"Bosch Tassimo Suny TAS3202 - Cafetera multibebidas automática de cápsulas con sistema SmartStart, color azul","EUR 49,00","de Bosch"
"Nespresso Krups Pixie XN3005 - Cafetera de cápsulas, color gris","EUR 109,99","de Nespresso"
"Nespresso DeLonghi Expert&Milk EN355GAE - Cafetera de cápsulas, color antracita","EUR 325,80","de Nespresso"
"Krups Nespresso Inissia - Cafetera, sistema Thermoblock de rápido calentamiento, incluye 16 cápsulas de café, color azul","EUR 85,82","de Nespresso"
"Bosch TASSIMO VIVY 2 Independiente Totalmente automática Combi coffee maker, color rosa","EUR 45,05","de Bosch"
"Homgeek Mini Cafetera Capsulas De Expresso Máquina De Café Italiano Cappuccino Cafetera Portátil Para Viaje Molinillo Cafe Molinillo, color blanco","EUR 39,99","de Homgeek"
"Bosch TASSIMO Vivy TAS1254 – Cafetera multibebidas automática de cápsulas, diseño compacto, color blanco","EUR 42,39","de Bosch"
"Nespresso Krups Pixie XN3006 - Cafetera de cápsulas, color rojo electrico","EUR 109,99","de Nespresso"
"DeLonghi Dolce Gusto Eclipse - Cafetera de cápsulas espresso monodosis, 15 bares, interfaz intuitivo automático, plato, color azul","EUR 139,00","de DeLonghi"
"L-BEANS Cafeteras de Émbolo de Acero Inoxidable (600ml), color metal pulido","EUR 16,92","de L-Beans"
"De'Longhi Dolce Gusto Melody 3 - Máquina de café (Flow Stop, Expresso, 15 Bar), color rojo","EUR 69,00","de DeLonghi"
"Krups KP1101 Independiente Máquina de café en cápsulas 0.6L Color blanco","EUR 53,58","de Krups"
"Nespresso DeLonghi Lattissima Touch EN550B - Cafetera de cápsulas, color negro","EUR 120,00","de Nespresso"
"Nespresso DeLonghi U EN110B - Cafetera de cápsulas, color negro","EUR 106,00","de Nespresso"
"Nespresso Krups U XN2501 - Cafetera de cápsulas, color blanco","EUR 109,99","de Nespresso"
